{
  "an": {
    "revision": "65870a5503b6",
    "platforms": ["android", "android-multilocale"]
  },
  "ar": {
    "revision": "9c4b301989ca",
    "platforms": ["android"]
  },
  "as": {
    "revision": "2a17d7b5147c",
    "platforms": ["android", "android-multilocale"]
  },
  "be": {
    "revision": "b72077740aac",
    "platforms": ["android", "android-multilocale"]
  },
  "bn-IN": {
    "revision": "07579ac66778",
    "platforms": ["android", "android-multilocale"]
  },
  "br": {
    "revision": "b1ae14fd2dc5",
    "platforms": ["android", "android-multilocale"]
  },
  "ca": {
    "revision": "e65d3dfc07bb",
    "platforms": ["android", "android-multilocale"]
  },
  "cs": {
    "revision": "9c408de39f54",
    "platforms": ["android", "android-multilocale"]
  },
  "cy": {
    "revision": "f0e4ba1345e8",
    "platforms": ["android", "android-multilocale"]
  },
  "da": {
    "revision": "fe56ff3e0452",
    "platforms": ["android", "android-multilocale"]
  },
  "de": {
    "revision": "7c351da8222a",
    "platforms": ["android", "android-multilocale"]
  },
  "en-GB": {
    "revision": "baafa8ae5a23",
    "platforms": ["android", "android-multilocale"]
  },
  "eo": {
    "revision": "a8de36dbfabc",
    "platforms": ["android", "android-multilocale"]
  },
  "es-AR": {
    "revision": "4e6af48c7eaa",
    "platforms": ["android", "android-multilocale"]
  },
  "es-ES": {
    "revision": "2b99babe55c7",
    "platforms": ["android", "android-multilocale"]
  },
  "es-MX": {
    "revision": "774b46f35b93",
    "platforms": ["android", "android-multilocale"]
  },
  "et": {
    "revision": "0758796b2d7b",
    "platforms": ["android", "android-multilocale"]
  },
  "eu": {
    "revision": "490d278b0aeb",
    "platforms": ["android", "android-multilocale"]
  },
  "ff": {
    "revision": "4955e27bab3d",
    "platforms": ["android", "android-multilocale"]
  },
  "fi": {
    "revision": "7c79fecb1569",
    "platforms": ["android", "android-multilocale"]
  },
  "fr": {
    "revision": "fb58944bf8e9",
    "platforms": ["android", "android-multilocale"]
  },
  "fy-NL": {
    "revision": "66afef1db244",
    "platforms": ["android", "android-multilocale"]
  },
  "ga-IE": {
    "revision": "f841e9037f9e",
    "platforms": ["android", "android-multilocale"]
  },
  "gd": {
    "revision": "65bc433cf2d8",
    "platforms": ["android", "android-multilocale"]
  },
  "gl": {
    "revision": "6a40cee822a6",
    "platforms": ["android"]
  },
  "gu-IN": {
    "revision": "5e24779c41ef",
    "platforms": ["android", "android-multilocale"]
  },
  "hi-IN": {
    "revision": "609f374d0513",
    "platforms": ["android", "android-multilocale"]
  },
  "hu": {
    "revision": "43dd6388fc91",
    "platforms": ["android", "android-multilocale"]
  },
  "hy-AM": {
    "revision": "609030a888cf",
    "platforms": ["android", "android-multilocale"]
  },
  "id": {
    "revision": "b520186368ec",
    "platforms": ["android", "android-multilocale"]
  },
  "is": {
    "revision": "6bd5c6139ee7",
    "platforms": ["android", "android-multilocale"]
  },
  "it": {
    "revision": "a90a2ec31590",
    "platforms": ["android", "android-multilocale"]
  },
  "ja": {
    "revision": "6cf25a42271c",
    "platforms": ["android", "android-multilocale"]
  },
  "kk": {
    "revision": "5a65bce7677d",
    "platforms": ["android", "android-multilocale"]
  },
  "kn": {
    "revision": "1cc0cb45679c",
    "platforms": ["android", "android-multilocale"]
  },
  "ko": {
    "revision": "9b69886bb9d6",
    "platforms": ["android", "android-multilocale"]
  },
  "lt": {
    "revision": "3da4e0197337",
    "platforms": ["android", "android-multilocale"]
  },
  "lv": {
    "revision": "4449d3afb533",
    "platforms": ["android", "android-multilocale"]
  },
  "mai": {
    "revision": "b2abd3161b6e",
    "platforms": ["android", "android-multilocale"]
  },
  "ml": {
    "revision": "7b546d1d46b3",
    "platforms": ["android", "android-multilocale"]
  },
  "mr": {
    "revision": "a59a986d757b",
    "platforms": ["android", "android-multilocale"]
  },
  "ms": {
    "revision": "529102153fdd",
    "platforms": ["android", "android-multilocale"]
  },
  "nb-NO": {
    "revision": "7d73f6f80efd",
    "platforms": ["android", "android-multilocale"]
  },
  "nl": {
    "revision": "82dfab1f32e5",
    "platforms": ["android", "android-multilocale"]
  },
  "or": {
    "revision": "776971b99ebf",
    "platforms": ["android", "android-multilocale"]
  },
  "pa-IN": {
    "revision": "b26738ee3a42",
    "platforms": ["android", "android-multilocale"]
  },
  "pl": {
    "revision": "e36f5ddd4e50",
    "platforms": ["android", "android-multilocale"]
  },
  "pt-BR": {
    "revision": "5ec8f7909ae9",
    "platforms": ["android", "android-multilocale"]
  },
  "pt-PT": {
    "revision": "92ab8558b6c2",
    "platforms": ["android", "android-multilocale"]
  },
  "ro": {
    "revision": "cdbf50ab417c",
    "platforms": ["android", "android-multilocale"]
  },
  "ru": {
    "revision": "46c96827c224",
    "platforms": ["android", "android-multilocale"]
  },
  "sk": {
    "revision": "a29ccf15e64d",
    "platforms": ["android", "android-multilocale"]
  },
  "sl": {
    "revision": "300df6b65cef",
    "platforms": ["android", "android-multilocale"]
  },
  "sv-SE": {
    "revision": "090e18953281",
    "platforms": ["android", "android-multilocale"]
  },
  "ta": {
    "revision": "e76ef5c76aee",
    "platforms": ["android", "android-multilocale"]
  },
  "te": {
    "revision": "b8705091a657",
    "platforms": ["android", "android-multilocale"]
  },
  "th": {
    "revision": "b5a7ec14fabf",
    "platforms": ["android", "android-multilocale"]
  },
  "tr": {
    "revision": "38dda5419b46",
    "platforms": ["android", "android-multilocale"]
  },
  "uk": {
    "revision": "15316c48fbaf",
    "platforms": ["android", "android-multilocale"]
  },
  "xh": {
    "revision": "7d3a7c258431",
    "platforms": ["android"]
  },
  "zh-CN": {
    "revision": "6ed9abdcc839",
    "platforms": ["android", "android-multilocale"]
  },
  "zh-TW": {
    "revision": "8e2ace0e1731",
    "platforms": ["android", "android-multilocale"]
  }
}